{
  "images" : [
    {
      "idiom" : "universal",
      "filename" : "ComplicationIcon@52-1.pdf",
      "scale" : "1x"
    },
    {
      "idiom" : "universal",
      "filename" : "ComplicationIcon@58-1.pdf",
      "scale" : "2x"
    },
    {
      "idiom" : "universal",
      "filename" : "ComplicationIcon@58.pdf",
      "scale" : "3x"
    }
  ],
  "info" : {
    "version" : 1,
    "author" : "xcode"
  }
}